<?xml version="1.0" encoding="UTF-8"?><COLLADA xmlns="http://www.collada.org/2005/11/COLLADASchema" version="1.4.1">
<asset>
<contributor>
<author>VoxelShop User</author>
<authoring_tool>VoxelShop V1.7.01</authoring_tool>
</contributor>
<created>2016-09-02T19:35:10</created>
<modified>2016-09-02T19:35:10</modified>
<unit meter="1" name="meter"/>
<up_axis>Z_UP</up_axis>
</asset>
<library_images>
<image id="SkyFone_Top_optimized_texture0-image" name="SkyFone_Top_optimized_texture0-image">
<init_from>file://SkyFone_Top_optimized_texture0.png</init_from>
</image>
</library_images>
<library_effects>
<effect id="lambert0-fx">
<profile_COMMON>
<newparam sid="SkyFone_Top_optimized_texture0-surface">
<surface type="2D">
<init_from>SkyFone_Top_optimized_texture0-image</init_from>
</surface>
</newparam>
<newparam sid="SkyFone_Top_optimized_texture0-sampler">
<sampler2D>
<source>SkyFone_Top_optimized_texture0-surface</source>
<wrap_s>WRAP</wrap_s>
<wrap_t>WRAP</wrap_t>
<minfilter>NEAREST</minfilter>
<magfilter>NEAREST</magfilter>
</sampler2D>
</newparam>
<technique sid="common">
<lambert>
<emission>
<color>0 0 0 1</color>
</emission>
<ambient>
<color>0 0 0 1</color>
</ambient>
<diffuse>
<texture texcoord="TEX0" texture="SkyFone_Top_optimized_texture0-sampler"/>
</diffuse>
</lambert>
</technique>
</profile_COMMON>
</effect>
</library_effects>
<library_materials>
<material id="lambert0-material" name="lambert0">
<instance_effect url="#lambert0-fx"/>
</material>
</library_materials>
<library_geometries>
<geometry id="Plane-tex-mesh-0" name="Plane-tex">
<mesh>
<source id="Plane-tex-mesh-0-positions">
<float_array count="48" id="Plane-tex-mesh-0-positions-array">-15 -3 9 -15 3 7 -15 -3 7 -15 3 9 -17 -3 7 -17 3 -1 -17 -3 -1 -17 3 7 17 -3 7 17 3 -1 17 -3 -1 17 3 7 15 -3 9 15 3 7 15 -3 7 15 3 9</float_array>
<technique_common>
<accessor count="16" source="#Plane-tex-mesh-0-positions-array" stride="3">
<param name="X" type="float"/>
<param name="Y" type="float"/>
<param name="Z" type="float"/>
</accessor>
</technique_common>
</source>
<source id="Plane-tex-mesh-0-uvs">
<float_array count="96" id="Plane-tex-mesh-0-uvs-array">0.39126635 0.88878095 0.2609456 0.77783173 0.39126635 0.77783173 0.39122835 0.88883495 0.26090756 0.88883495 0.26090756 0.7778857 0.04352049 0.22231935 0.10142816 0.5553613 0.10142816 0.22231935 0.10142816 0.22241648 0.10142816 0.5554584 0.04352049 0.5554584 0.04352049 0.5556527 0.08693541 0.88869464 0.08693541 0.5556527 0.8696155 0.66657597 0.9157357 0.5001813 0.9157357 0.66657597 0.1275516 0.5557634 0.1275516 0.88878495 0.17678086 0.88878495 0.9130043 0.66676295 0.78268707 0.79482365 0.9130043 0.79482365 0.9129651 0.79482365 0.7826479 0.79482365 0.7826479 0.66676295 0.39136583 0.77785635 0.43475187 0.8887318 0.43475187 0.77785635 0.3913351 0.7779349 0.3913351 0.88881034 0.4347211 0.88881034 0.39133596 0.7778541 0.39388824 0.8887363 0.43472466 0.7778541 0.39136773 0.88880527 0.43203658 0.88880527 0.43474784 0.77794504 0.39136583 0.88881034 0.43475187 0.88881034 0.43475187 0.7779349 0.13047034 0.11117505 0.17394267 0.5554277 0.86950004 0.11117505 0.26094267 0.8888166 0.9130105 0.8888166 0.95648164 0.44458908</float_array>
<technique_common>
<accessor count="48" source="#Plane-tex-mesh-0-uvs-array" stride="2">
<param name="S" type="float"/>
<param name="T" type="float"/>
</accessor>
</technique_common>
</source>
<vertices id="Plane-tex-mesh-0-vertices">
<input semantic="POSITION" source="#Plane-tex-mesh-0-positions"/>
</vertices>
<polylist count="28" material="lambert0-material">
<input offset="0" semantic="VERTEX" source="#Plane-tex-mesh-0-vertices"/>
<input offset="1" semantic="TEXCOORD" set="0" source="#Plane-tex-mesh-0-uvs"/>
<vcount>3 3 3 3 3 3 3 3 3 3 3 3 3 3 3 3 3 3 3 3 3 3 3 3 3 3 3 3</vcount>
<p>0 0 1 1 2 2 0 3 3 4 1 5 4 6 5 7 6 8 4 9 7 10 5 11 9 13 8 12 10 14 11 10 8 9 9 11 13 1 12 0 14 2 15 4 12 3 13 5 5 16 10 15 6 17 9 19 10 18 5 20 12 21 3 22 0 23 12 24 15 25 3 26 8 27 13 28 14 29 8 30 11 31 13 32 2 27 7 28 4 29 2 30 1 31 7 32 10 33 14 34 6 35 14 36 2 37 6 38 10 30 8 31 14 32 2 39 4 40 6 41 14 27 0 28 2 29 14 30 12 31 0 32 13 43 9 42 5 44 1 46 13 45 5 47 11 31 9 30 13 32 7 40 1 39 5 41 3 28 13 27 1 29 15 31 13 30 3 32</p>
</polylist>
</mesh>
</geometry>
</library_geometries>
<library_visual_scenes>
<visual_scene id="Scene" name="Scene">
<node id="skyfone_top_optimized.skyfone_top" name="skyfone_top_optimized.skyfone_top" type="NODE">
<translate sid="location">0 0 0</translate>
<rotate sid="rotationZ">0 0 1 0</rotate>
<rotate sid="rotationY">0 1 0 0</rotate>
<rotate sid="rotationX">1 0 0 0</rotate>
<scale sid="scale">0.05 0.05 0.05</scale>
<instance_geometry name="skyfone_top" sid="skyfone_top" url="#Plane-tex-mesh-0">
<bind_material>
<technique_common>
<instance_material symbol="lambert0-material" target="#lambert0-material">
<bind_vertex_input input_semantic="TEXCOORD" input_set="0" semantic="TEX0"/>
</instance_material>
</technique_common>
</bind_material>
</instance_geometry>
</node>
</visual_scene>
</library_visual_scenes>
<scene>
<instance_visual_scene url="#Scene"/>
</scene>
</COLLADA>
