index,#,Target,Range,Speed,Max,Comments
0,1,50,10,6,100,Intro
1,2,25,10,6,100,-
2,3,15,5,6,100,-
3,4,60,10,5,100,-
4,5,75,3,5,100,-
5,6,25,5,5,100,-
6,7,55,2,6,100,-
7,8,65,10,6,100,Edgy
8,9,15,2,3,100,-
9,10,90,5,2,100,-
10,11,10,1,5,100,-
11,12,50,5,3,100,-
12,13,43,5,8,100,-
13,14,45,0,8,100,-
14,15,55,10,2,100,Fast
15,16,75,5,3,100,-
16,17,45,3,2,100,-
17,18,95,3,2,100,-
18,19,50,2,2,100,-
19,20,25,1,3,100,-
20,21,40,0,2,100,-
21,22,55,2,6,100,Accuracy
22,23,25,2,6,100,-
23,24,75,5,5,100,-
24,25,15,2,5,100,-
25,26,60,0,4,100,-
26,27,35,5,4,100,-
27,28,80,0,3,100,-
28,29,42,1,2,100,-
29,30,99,0,1,100,-